{
    "data": [
      {
        "id": 1,
        "image": "1.png",
        "name": "John Doe",
        "location": "Jakarta Barat, Indonesia",
        "badge": 2,
        "badge_text": "50% Off",
        "rating": "4.6",
        "price": "50k/h",
        "normal_price": "100k"
      },
      {
        "id": 2,
        "image": "2.png",
        "name": "John Doe",
        "location": "Jakarta Barat, Indonesia",
        "badge": 1,
        "badge_text": "Best Choice",
        "rating": "4.6",
        "price": "50k/h",
        "normal_price": "100k"
      },
      {
        "id": 3,
        "image": "3.png",
        "name": "John Doe",
        "location": "Jakarta Barat, Indonesia",
        "badge": 0,
        "badge_text": "50% Off",
        "rating": "4.6",
        "price": "50k/h",
        "normal_price": "100k"
      }
    ]
}